\relax 
\@writefile{toc}{\contentsline {section}{\numberline {1} YOU ARE INVITED}{1}}
\newlabel{tb:beispieltabelle}{{1}{1}}
\@writefile{lof}{\contentsline {figure}{\numberline {1}{\ignorespaces We are going to start a countdown}}{2}}
